; ModuleID = 'probe1.3a1fbbbh-cgu.0'
source_filename = "probe1.3a1fbbbh-cgu.0"
target datalayout = "e-m:w-i64:64-f80:128-n8:16:32:64-S128"
target triple = "x86_64-pc-windows-msvc"

%"core::iter::adapters::Rev<core::iter::adapters::StepBy<core::ops::range::Range<i32>>>" = type { [0 x i64], %"core::iter::adapters::StepBy<core::ops::range::Range<i32>>", [0 x i64] }
%"core::iter::adapters::StepBy<core::ops::range::Range<i32>>" = type { [0 x i64], i64, [0 x i32], { i32, i32 }, [0 x i8], i8, [7 x i8] }
%"core::panic::Location" = type { [0 x i64], { [0 x i8]*, i64 }, [0 x i32], i32, [0 x i32], i32, [0 x i32] }

@alloc1 = private unnamed_addr constant <{ [27 x i8] }> <{ [27 x i8] c"assertion failed: step != 0" }>, align 1
@alloc2 = private unnamed_addr constant <{ [110 x i8] }> <{ [110 x i8] c"C:\5CUsers\5Ctorla\5C.rustup\5Ctoolchains\5Cstable-x86_64-pc-windows-msvc\5Clib/rustlib/src/rust\5Csrc\5Clibcore\5Cmacros\5Cmod.rs" }>, align 1
@alloc3 = private unnamed_addr constant <{ i8*, [16 x i8] }> <{ i8* getelementptr inbounds (<{ [110 x i8] }>, <{ [110 x i8] }>* @alloc2, i32 0, i32 0, i32 0), [16 x i8] c"n\00\00\00\00\00\00\00\22\00\00\00\09\00\00\00" }>, align 8

; core::iter::traits::iterator::Iterator::rev
; Function Attrs: inlinehint uwtable
define void @_ZN4core4iter6traits8iterator8Iterator3rev17hef5f0a64ede87bcdE(%"core::iter::adapters::Rev<core::iter::adapters::StepBy<core::ops::range::Range<i32>>>"* noalias nocapture sret dereferenceable(24), %"core::iter::adapters::StepBy<core::ops::range::Range<i32>>"* noalias nocapture dereferenceable(24) %self) unnamed_addr #0 {
start:
  %_2 = alloca %"core::iter::adapters::StepBy<core::ops::range::Range<i32>>", align 8
  %1 = bitcast %"core::iter::adapters::StepBy<core::ops::range::Range<i32>>"* %_2 to i8*
  %2 = bitcast %"core::iter::adapters::StepBy<core::ops::range::Range<i32>>"* %self to i8*
  call void @llvm.memcpy.p0i8.p0i8.i64(i8* align 8 %1, i8* align 8 %2, i64 24, i1 false)
; call core::iter::adapters::Rev<T>::new
  call void @"_ZN4core4iter8adapters12Rev$LT$T$GT$3new17h2eda263ef1e5296aE"(%"core::iter::adapters::Rev<core::iter::adapters::StepBy<core::ops::range::Range<i32>>>"* noalias nocapture sret dereferenceable(24) %0, %"core::iter::adapters::StepBy<core::ops::range::Range<i32>>"* noalias nocapture dereferenceable(24) %_2)
  br label %bb1

bb1:                                              ; preds = %start
  ret void
}

; core::iter::traits::iterator::Iterator::step_by
; Function Attrs: inlinehint uwtable
define void @_ZN4core4iter6traits8iterator8Iterator7step_by17h97a7118a52f70665E(%"core::iter::adapters::StepBy<core::ops::range::Range<i32>>"* noalias nocapture sret dereferenceable(24), i32 %self.0, i32 %self.1, i64 %step) unnamed_addr #0 {
start:
; call core::iter::adapters::StepBy<I>::new
  call void @"_ZN4core4iter8adapters15StepBy$LT$I$GT$3new17h3fc52288a4e78316E"(%"core::iter::adapters::StepBy<core::ops::range::Range<i32>>"* noalias nocapture sret dereferenceable(24) %0, i32 %self.0, i32 %self.1, i64 %step)
  br label %bb1

bb1:                                              ; preds = %start
  ret void
}

; core::iter::adapters::Rev<T>::new
; Function Attrs: uwtable
define void @"_ZN4core4iter8adapters12Rev$LT$T$GT$3new17h2eda263ef1e5296aE"(%"core::iter::adapters::Rev<core::iter::adapters::StepBy<core::ops::range::Range<i32>>>"* noalias nocapture sret dereferenceable(24), %"core::iter::adapters::StepBy<core::ops::range::Range<i32>>"* noalias nocapture dereferenceable(24) %iter) unnamed_addr #1 {
start:
  %_2 = alloca %"core::iter::adapters::StepBy<core::ops::range::Range<i32>>", align 8
  %1 = bitcast %"core::iter::adapters::StepBy<core::ops::range::Range<i32>>"* %_2 to i8*
  %2 = bitcast %"core::iter::adapters::StepBy<core::ops::range::Range<i32>>"* %iter to i8*
  call void @llvm.memcpy.p0i8.p0i8.i64(i8* align 8 %1, i8* align 8 %2, i64 24, i1 false)
  %3 = bitcast %"core::iter::adapters::Rev<core::iter::adapters::StepBy<core::ops::range::Range<i32>>>"* %0 to %"core::iter::adapters::StepBy<core::ops::range::Range<i32>>"*
  %4 = bitcast %"core::iter::adapters::StepBy<core::ops::range::Range<i32>>"* %3 to i8*
  %5 = bitcast %"core::iter::adapters::StepBy<core::ops::range::Range<i32>>"* %_2 to i8*
  call void @llvm.memcpy.p0i8.p0i8.i64(i8* align 8 %4, i8* align 8 %5, i64 24, i1 false)
  ret void
}

; core::iter::adapters::StepBy<I>::new
; Function Attrs: uwtable
define void @"_ZN4core4iter8adapters15StepBy$LT$I$GT$3new17h3fc52288a4e78316E"(%"core::iter::adapters::StepBy<core::ops::range::Range<i32>>"* noalias nocapture sret dereferenceable(24), i32 %iter.0, i32 %iter.1, i64 %step) unnamed_addr #1 personality i32 (...)* @__CxxFrameHandler3 {
start:
  %_4 = icmp ne i64 %step, 0
  %_3 = xor i1 %_4, true
  br i1 %_3, label %bb3, label %bb2

bb1:                                              ; preds = %bb4
  cleanupret from %cleanuppad unwind to caller

bb2:                                              ; preds = %start
  %_9 = sub i64 %step, 1
  %1 = getelementptr inbounds %"core::iter::adapters::StepBy<core::ops::range::Range<i32>>", %"core::iter::adapters::StepBy<core::ops::range::Range<i32>>"* %0, i32 0, i32 3
  %2 = getelementptr inbounds { i32, i32 }, { i32, i32 }* %1, i32 0, i32 0
  store i32 %iter.0, i32* %2, align 8
  %3 = getelementptr inbounds { i32, i32 }, { i32, i32 }* %1, i32 0, i32 1
  store i32 %iter.1, i32* %3, align 4
  %4 = bitcast %"core::iter::adapters::StepBy<core::ops::range::Range<i32>>"* %0 to i64*
  store i64 %_9, i64* %4, align 8
  %5 = getelementptr inbounds %"core::iter::adapters::StepBy<core::ops::range::Range<i32>>", %"core::iter::adapters::StepBy<core::ops::range::Range<i32>>"* %0, i32 0, i32 5
  store i8 1, i8* %5, align 8
  ret void

bb3:                                              ; preds = %start
; invoke core::panicking::panic
  invoke void @_ZN4core9panicking5panic17hb5a07a26965dd7feE([0 x i8]* noalias nonnull readonly align 1 bitcast (<{ [27 x i8] }>* @alloc1 to [0 x i8]*), i64 27, %"core::panic::Location"* noalias readonly align 8 dereferenceable(24) bitcast (<{ i8*, [16 x i8] }>* @alloc3 to %"core::panic::Location"*))
          to label %unreachable unwind label %funclet_bb4

bb4:                                              ; preds = %funclet_bb4
  br label %bb1

funclet_bb4:                                      ; preds = %bb3
  %cleanuppad = cleanuppad within none []
  br label %bb4

unreachable:                                      ; preds = %bb3
  unreachable
}

; probe1::probe
; Function Attrs: uwtable
define void @_ZN6probe15probe17he203a3b61d9abeacE() unnamed_addr #1 {
start:
  %_3 = alloca { i32, i32 }, align 4
  %_2 = alloca %"core::iter::adapters::StepBy<core::ops::range::Range<i32>>", align 8
  %_1 = alloca %"core::iter::adapters::Rev<core::iter::adapters::StepBy<core::ops::range::Range<i32>>>", align 8
  %0 = bitcast { i32, i32 }* %_3 to i32*
  store i32 0, i32* %0, align 4
  %1 = getelementptr inbounds { i32, i32 }, { i32, i32 }* %_3, i32 0, i32 1
  store i32 10, i32* %1, align 4
  %2 = getelementptr inbounds { i32, i32 }, { i32, i32 }* %_3, i32 0, i32 0
  %3 = load i32, i32* %2, align 4
  %4 = getelementptr inbounds { i32, i32 }, { i32, i32 }* %_3, i32 0, i32 1
  %5 = load i32, i32* %4, align 4
; call core::iter::traits::iterator::Iterator::step_by
  call void @_ZN4core4iter6traits8iterator8Iterator7step_by17h97a7118a52f70665E(%"core::iter::adapters::StepBy<core::ops::range::Range<i32>>"* noalias nocapture sret dereferenceable(24) %_2, i32 %3, i32 %5, i64 2)
  br label %bb1

bb1:                                              ; preds = %start
; call core::iter::traits::iterator::Iterator::rev
  call void @_ZN4core4iter6traits8iterator8Iterator3rev17hef5f0a64ede87bcdE(%"core::iter::adapters::Rev<core::iter::adapters::StepBy<core::ops::range::Range<i32>>>"* noalias nocapture sret dereferenceable(24) %_1, %"core::iter::adapters::StepBy<core::ops::range::Range<i32>>"* noalias nocapture dereferenceable(24) %_2)
  br label %bb2

bb2:                                              ; preds = %bb1
  ret void
}

; Function Attrs: argmemonly nounwind
declare void @llvm.memcpy.p0i8.p0i8.i64(i8* nocapture writeonly, i8* nocapture readonly, i64, i1 immarg) #2

declare i32 @__CxxFrameHandler3(...) unnamed_addr #3

; core::panicking::panic
; Function Attrs: cold noinline noreturn uwtable
declare void @_ZN4core9panicking5panic17hb5a07a26965dd7feE([0 x i8]* noalias nonnull readonly align 1, i64, %"core::panic::Location"* noalias readonly align 8 dereferenceable(24)) unnamed_addr #4

attributes #0 = { inlinehint uwtable "target-cpu"="x86-64" }
attributes #1 = { uwtable "target-cpu"="x86-64" }
attributes #2 = { argmemonly nounwind }
attributes #3 = { "target-cpu"="x86-64" }
attributes #4 = { cold noinline noreturn uwtable "target-cpu"="x86-64" }

!llvm.module.flags = !{!0}

!0 = !{i32 7, !"PIC Level", i32 2}
